<?xml version="1.0" encoding="UTF-8"?>
<svg width="12px" height="9px" viewBox="0 0 12 9" version="1.1" xmlns="http://www.w3.org/2000/svg" xmlns:xlink="http://www.w3.org/1999/xlink">
    <!-- Generator: Sketch 55.2 (78181) - https://sketchapp.com -->
    <title>Path</title>
    <desc>Created with Sketch.</desc>
    <g id="Recepción-Bultos-en-Tienda---v2" stroke="none" stroke-width="1" fill="none" fill-rule="evenodd">
        <g id="CCC---Recepción-Bultos-en-Tienda---paso-9" transform="translate(-1346.000000, -838.000000)" fill="#FFFFFF" fill-rule="nonzero">
            <g id="Group-2" transform="translate(1146.000000, 818.000000)">
                <g id="Group-5" transform="translate(27.000000, 17.000000)">
                    <g id="Group-6">
                        <path d="M184.630043,3.3765603 C184.137398,2.8744799 183.336535,2.8744799 182.843891,3.3765603 L177.421011,8.89558742 L175.156109,6.59090341 C174.663465,6.08882301 173.862602,6.08882301 173.369957,6.59090341 C172.876681,7.0929838 172.876681,7.90685548 173.369957,8.40893587 L176.527935,11.623279 C176.774257,11.8746406 177.097634,12 177.421011,12 C177.744388,12 178.067765,11.8746406 178.314087,11.623279 L184.630043,5.19459276 C185.123319,4.69251237 185.123319,3.87864069 184.630043,3.3765603 Z" id="Path"></path>
                    </g>
                </g>
            </g>
        </g>
    </g>
</svg>