<?xml version="1.0" encoding="UTF-8"?>
<svg width="18px" height="24px" viewBox="0 0 18 24" version="1.1" xmlns="http://www.w3.org/2000/svg" xmlns:xlink="http://www.w3.org/1999/xlink">
    <!-- Generator: Sketch 55.2 (78181) - https://sketchapp.com -->
    <title>Group 3 Copy 3</title>
    <desc>Created with Sketch.</desc>
    <g id="Recepción-Bultos-en-Tienda---v2" stroke="none" stroke-width="1" fill="none" fill-rule="evenodd">
        <g id="CCC---Recepción-Bultos-en-Tienda---paso-9" transform="translate(-220.000000, -248.000000)" fill="#1991EB">
            <g id="Numero-de-Orden-con-Icono---No-Seleccionado" transform="translate(198.000000, 230.000000)">
                <g id="Group-3-Copy-3" transform="translate(22.000000, 19.000000)">
                    <g id="001-file">
                        <rect id="Rectangle-Copy-2" x="4" y="11" width="10" height="1"></rect>
                        <rect id="Rectangle" x="4" y="14" width="10" height="1"></rect>
                        <path d="M12.34275,0 L0.1875,0 L0.1875,22 L17.8125,22 L17.8125,5.3482 L12.34275,0 Z M12.5625,1.2518 L16.53225,5.13333333 L12.5625,5.13333333 L12.5625,1.2518 Z M0.9375,21.2666667 L0.9375,0.733333333 L11.8125,0.733333333 L11.8125,5.86666667 L17.0625,5.86666667 L17.0625,21.2666667 L0.9375,21.2666667 Z" id="Shape" stroke="#1991EB" stroke-width="0.3" fill-rule="nonzero"></path>
                    </g>
                    <rect id="Rectangle-Copy" x="4" y="17" width="10" height="1"></rect>
                    <rect id="Rectangle-Copy-2" x="4" y="8" width="10" height="1"></rect>
                    <rect id="Rectangle-Copy-2" x="4" y="5" width="5" height="1"></rect>
                </g>
            </g>
        </g>
    </g>
</svg>